[1006/202128.843:ERROR:crash_report_database_win.cc(469)] failed to stat report
[1006/202128.843:ERROR:crash_report_database_win.cc(469)] failed to stat report
[1006/202128.843:ERROR:crash_report_database_win.cc(469)] failed to stat report
[1006/203128.843:ERROR:crash_report_database_win.cc(469)] failed to stat report
[1006/203128.843:ERROR:crash_report_database_win.cc(469)] failed to stat report
[1006/203128.843:ERROR:crash_report_database_win.cc(469)] failed to stat report
[1006/203128.844:ERROR:crash_report_database_win.cc(469)] failed to stat report
[1006/203128.844:ERROR:crash_report_database_win.cc(469)] failed to stat report
[1006/203128.844:ERROR:crash_report_database_win.cc(469)] failed to stat report
[1006/203206.528:ERROR:crash_report_database_win.cc(469)] failed to stat report
[1006/203206.531:ERROR:crash_report_database_win.cc(469)] failed to stat report
[1006/203206.531:ERROR:crash_report_database_win.cc(469)] failed to stat report
[1006/203628.844:ERROR:crash_report_database_win.cc(469)] failed to stat report
[1006/203628.845:ERROR:crash_report_database_win.cc(469)] failed to stat report
[1006/203628.845:ERROR:crash_report_database_win.cc(469)] failed to stat report
[1006/205128.846:ERROR:crash_report_database_win.cc(469)] failed to stat report
[1006/205128.846:ERROR:crash_report_database_win.cc(469)] failed to stat report
[1006/205128.846:ERROR:crash_report_database_win.cc(469)] failed to stat report
[1006/210628.846:ERROR:crash_report_database_win.cc(469)] failed to stat report
[1006/210628.847:ERROR:crash_report_database_win.cc(469)] failed to stat report
[1006/210628.847:ERROR:crash_report_database_win.cc(469)] failed to stat report
[1006/212128.848:ERROR:crash_report_database_win.cc(469)] failed to stat report
[1006/212128.848:ERROR:crash_report_database_win.cc(469)] failed to stat report
[1006/212128.848:ERROR:crash_report_database_win.cc(469)] failed to stat report
[1006/213628.849:ERROR:crash_report_database_win.cc(469)] failed to stat report
[1006/213628.850:ERROR:crash_report_database_win.cc(469)] failed to stat report
[1006/213628.850:ERROR:crash_report_database_win.cc(469)] failed to stat report
[1006/215128.851:ERROR:crash_report_database_win.cc(469)] failed to stat report
[1006/215128.851:ERROR:crash_report_database_win.cc(469)] failed to stat report
[1006/215128.851:ERROR:crash_report_database_win.cc(469)] failed to stat report
[1006/220628.852:ERROR:crash_report_database_win.cc(469)] failed to stat report
[1006/220628.852:ERROR:crash_report_database_win.cc(469)] failed to stat report
[1006/220628.852:ERROR:crash_report_database_win.cc(469)] failed to stat report
[1006/222128.854:ERROR:crash_report_database_win.cc(469)] failed to stat report
[1006/222128.854:ERROR:crash_report_database_win.cc(469)] failed to stat report
[1006/222128.854:ERROR:crash_report_database_win.cc(469)] failed to stat report
[1006/223628.856:ERROR:crash_report_database_win.cc(469)] failed to stat report
[1006/223628.856:ERROR:crash_report_database_win.cc(469)] failed to stat report
[1006/223628.856:ERROR:crash_report_database_win.cc(469)] failed to stat report
[1006/225128.856:ERROR:crash_report_database_win.cc(469)] failed to stat report
[1006/225128.856:ERROR:crash_report_database_win.cc(469)] failed to stat report
[1006/225128.857:ERROR:crash_report_database_win.cc(469)] failed to stat report
[1006/230628.859:ERROR:crash_report_database_win.cc(469)] failed to stat report
[1006/230628.859:ERROR:crash_report_database_win.cc(469)] failed to stat report
[1006/230628.859:ERROR:crash_report_database_win.cc(469)] failed to stat report
[1006/232128.859:ERROR:crash_report_database_win.cc(469)] failed to stat report
[1006/232128.860:ERROR:crash_report_database_win.cc(469)] failed to stat report
[1006/232128.860:ERROR:crash_report_database_win.cc(469)] failed to stat report
[1006/233628.861:ERROR:crash_report_database_win.cc(469)] failed to stat report
[1006/233628.861:ERROR:crash_report_database_win.cc(469)] failed to stat report
[1006/233628.861:ERROR:crash_report_database_win.cc(469)] failed to stat report
[1006/235006.790:ERROR:crash_report_database_win.cc(469)] failed to stat report
[1006/235006.791:ERROR:crash_report_database_win.cc(469)] failed to stat report
[1006/235006.791:ERROR:crash_report_database_win.cc(469)] failed to stat report
[1006/235128.862:ERROR:crash_report_database_win.cc(469)] failed to stat report
[1006/235128.863:ERROR:crash_report_database_win.cc(469)] failed to stat report
[1006/235128.863:ERROR:crash_report_database_win.cc(469)] failed to stat report
[1007/000628.863:ERROR:crash_report_database_win.cc(469)] failed to stat report
[1007/000628.863:ERROR:crash_report_database_win.cc(469)] failed to stat report
[1007/000628.863:ERROR:crash_report_database_win.cc(469)] failed to stat report
[1007/002128.865:ERROR:crash_report_database_win.cc(469)] failed to stat report
[1007/002128.866:ERROR:crash_report_database_win.cc(469)] failed to stat report
[1007/002128.866:ERROR:crash_report_database_win.cc(469)] failed to stat report
[1007/003628.868:ERROR:crash_report_database_win.cc(469)] failed to stat report
[1007/003628.868:ERROR:crash_report_database_win.cc(469)] failed to stat report
[1007/003628.868:ERROR:crash_report_database_win.cc(469)] failed to stat report
[1007/094211.919:ERROR:crash_report_database_win.cc(469)] failed to stat report
[1007/094211.920:ERROR:crash_report_database_win.cc(469)] failed to stat report
[1007/094211.920:ERROR:crash_report_database_win.cc(469)] failed to stat report
[1007/182038.702:ERROR:crash_report_database_win.cc(469)] failed to stat report
[1007/182038.731:ERROR:crash_report_database_win.cc(469)] failed to stat report
[1007/182038.731:ERROR:crash_report_database_win.cc(469)] failed to stat report
[1012/094138.815:ERROR:crash_report_database_win.cc(469)] failed to stat report
[1012/094138.851:ERROR:crash_report_database_win.cc(469)] failed to stat report
[1012/094138.851:ERROR:crash_report_database_win.cc(469)] failed to stat report
